[gd_scene load_steps=3 format=2]

[ext_resource path="res://Entities/ProductiveLocation/ProductiveLocation.gd" type="Script" id=1]

[sub_resource type="RectangleShape2D" id=1]
extents = Vector2( 74.1703, 37.6348 )

[node name="Desk" type="Area2D"]
position = Vector2( 872, 136 )
scale = Vector2( 0.530529, 0.530529 )
collision_layer = 2
collision_mask = 2
script = ExtResource( 1 )

[node name="CollisionShape2D" type="CollisionShape2D" parent="."]
position = Vector2( 45.2379, 30.1586 )
scale = Vector2( 1.02358, 0.983271 )
shape = SubResource( 1 )
