[gd_scene load_steps=5 format=2]

[ext_resource path="res://Entities/WaterCooler/WaterCooler.gd" type="Script" id=2]
[ext_resource path="res://Assets/Textures/WaterCooler.png" type="Texture" id=3]

[sub_resource type="RectangleShape2D" id=1]
extents = Vector2( 32, 40 )

[sub_resource type="RectangleShape2D" id=2]
extents = Vector2( 10, 16 )

[node name="WaterCooler" type="Area2D"]
position = Vector2( 40, 368 )
collision_layer = 2
collision_mask = 2
script = ExtResource( 2 )

[node name="CollisionShape2D" type="CollisionShape2D" parent="."]
position = Vector2( 0, 8 )
shape = SubResource( 1 )

[node name="StaticBody2D" type="StaticBody2D" parent="."]

[node name="CollisionShape2D" type="CollisionShape2D" parent="StaticBody2D"]
position = Vector2( 0, 16 )
shape = SubResource( 2 )

[node name="Sprite" type="Sprite" parent="StaticBody2D"]
scale = Vector2( 2, 2 )
texture = ExtResource( 3 )
